{
  "type": "service_account",
  "project_id": "xtractx-204208",
  "private_key_id": "1b76771d12cfea704a1ef9787fe545ec593af1af",
  "private_key": "-----BEGIN PRIVATE KEY-----\nMIIEvQIBADANBgkqhkiG9w0BAQEFAASCBKcwggSjAgEAAoIBAQCWBLaJXg88ZCBW\n3alTo0qid1tGjsGBe0Zhawc2c0gYq4qWLVLT9QJivnch7IQb1TZCTNVzcM7LfOX1\nNnFLugifov7ohgoYjxjW4+wDEZfZbkEM5D7/zfUxhouEpdfVZD/EfLBeSNumxZdi\nW5bz3upLXK4OCev+pN75rKZaBj+a/M4aOlc/P1g7+wNUa/dIZbOQqPpQX+MaClRB\nVEDObeK+WE9pmRigkda0pTsBX9DBlT40otfH3kI2ADQsidDcqg/spYVsLauoLDhq\nn2eRhH+mIIJwoR944MxEo+MEy6ifavBlfwi4X8BIvFbis6OSiJoxAJq1eMBgfvAt\nRE8DY+aNAgMBAAECggEAEX09K+iQ+CZoIBhkEYHGRV3gKz/1+Tq+QBndKRDphSQX\n2l2FptDif/vadv7+1naAhobfP5UVgWLvNYDXq89lX/moTsK0UfFPdltIptbvOq8A\nMG46QKeUf+XtRVVG7fQWUbmDn4pOPolnQP/n1PMrogY3rcqkU6He84FC54M2Tm11\ngLQgHfAntW2r6kw3thrOWiT8cnsA735NnRBXMIUbDapLPmIl5Kx5Gq2J7Np3+55X\ne5LLUBu4w+5N7bLcJusP043yMAET8TBSmP0R7N3bPJMOvPbohlNO3pshAP7r2xsN\nM4wcPOqFkv3htNoD6au4XU3SA6JOWYg/7m0nV5BTdQKBgQDKZ06uk30BwcT6d4Bp\nGxkMVh4JI8GXrTzOk63A08JmcMJjeeC1YT7a0pHvH0g5g+K5h0uITvNB7LQl5I4X\nnKUOCZc/8lOdSzeiBWYyK9wE/3IsZx29hHVBCOPSe+BUQRx2vTH6KXhTB3+qm55n\n/5wtXZn2zg91WWnTk5bQ6OPeVwKBgQC9vkfOtbCz86uQQ2lns2h+L1zUIYYWzaaP\n1GKkF7LnntxJwQKpfnAbwPjLhKnDJ18HMtI873Zhekf2KA8M97d+SWRTDxSSPD6L\nEiwZa+AS7FeT2xAX1K8Y70+hVYi8hDpLSW8Ya1ydnvBpTq0GSXTROKar5ZGipCER\nswF0yXtLuwKBgGIcoa9OHxJy8yDWPJC2afXo6LZVdsonV4prW5ZVD67IifHeamaB\ntQ4tdEANUd1PaN+2DY8Ndi1GqCyWFaqsa/XaAE8nEBD3HQiUxW0chZKGoLmVYn0z\ncAMOZCDrm1o8FagZHdi9sW3N/LyeorKW3QXAkZlpWWTw6rN8n2a0/YARAoGBAIdN\n/0rKiZ1pb7hKOgn3B9aj06B533K3Z8U9ALJfK/a7c/8sIcfYH/3KmCAZFC3UD5HE\njeNiJ5rPZi2E12a55yGpGF+aa2L0ju0BIm1mXb1gx/rpxgoYYlx3muNDaWR1LlSt\nowlY1gyYYHvX3M6U5zajHUeLR1UhkWtbqPgtDT0tAoGAd6udxHfAQJl+EXm5+gpg\nfmVvINmiSSvV/UPztFUlrfzLHtrAcFh3CE6yHwYK5kVhUOGyUheZ9TrR0U7GvL6e\n542//KsVCYDE0gpEvJNBxp1hRSprI7ngBiVfo93hdN8lMT/REdd17Xt3Pu0ShqMd\np0+Po38ihs578ZXXhkC8DJM=\n-----END PRIVATE KEY-----\n",
  "client_email": "decentblocks@xtractx-204208.iam.gserviceaccount.com",
  "client_id": "110695378021909596886",
  "auth_uri": "https://accounts.google.com/o/oauth2/auth",
  "token_uri": "https://accounts.google.com/o/oauth2/token",
  "auth_provider_x509_cert_url": "https://www.googleapis.com/oauth2/v1/certs",
  "client_x509_cert_url": "https://www.googleapis.com/robot/v1/metadata/x509/decentblocks%40xtractx-204208.iam.gserviceaccount.com"
}
